t1c_riscv_cpu/simulation.vcd
$date
	Tue Oct 14 13:52:59 2025
$end
$version
	Icarus Verilog
$end
$timescale
	1ns
$end
$scope module tb $end
$var wire 32 ! WriteData [31:0] $end
$var wire 32 " Result [31:0] $end
$var wire 32 # ReadData [31:0] $end
$var wire 32 $ PC [31:0] $end
$var wire 1 % MemWrite $end
$var wire 32 & DataAdr [31:0] $end
$var parameter 32 ' ADD $end
$var parameter 32 ( ADDI $end
$var parameter 32 ) ADDI_x0 $end
$var parameter 32 * AND $end
$var parameter 32 + ANDI $end
$var parameter 32 , AUIPC $end
$var parameter 32 - BEQ_IN $end
$var parameter 32 . BEQ_OUT $end
$var parameter 32 / BGEU_IN $end
$var parameter 32 0 BGEU_OUT $end
$var parameter 32 1 BGE_IN $end
$var parameter 32 2 BGE_OUT $end
$var parameter 32 3 BLTU_IN $end
$var parameter 32 4 BLTU_OUT $end
$var parameter 32 5 BLT_IN $end
$var parameter 32 6 BLT_OUT $end
$var parameter 32 7 BNE_IN $end
$var parameter 32 8 BNE_OUT $end
$var parameter 32 9 JAL $end
$var parameter 32 : JALR $end
$var parameter 32 ; LB $end
$var parameter 32 < LBU $end
$var parameter 32 = LH $end
$var parameter 32 > LHU $end
$var parameter 32 ? LUI $end
$var parameter 32 @ LW $end
$var parameter 32 A OR $end
$var parameter 32 B ORI $end
$var parameter 32 C SB $end
$var parameter 32 D SH $end
$var parameter 32 E SLL $end
$var parameter 32 F SLLI $end
$var parameter 32 G SLT $end
$var parameter 32 H SLTI $end
$var parameter 32 I SLTIU $end
$var parameter 32 J SLTU $end
$var parameter 32 K SRA $end
$var parameter 32 L SRAI $end
$var parameter 32 M SRL $end
$var parameter 32 N SRLI $end
$var parameter 32 O SUB $end
$var parameter 32 P SW $end
$var parameter 32 Q XOR $end
$var parameter 32 R XORI $end
$var reg 32 S Ext_DataAdr [31:0] $end
$var reg 1 T Ext_MemWrite $end
$var reg 32 U Ext_WriteData [31:0] $end
$var reg 1 V clk $end
$var reg 1 W reset $end
$var integer 32 X fault_instrs [31:0] $end
$var integer 32 Y flag [31:0] $end
$var integer 32 Z fw [31:0] $end
$var integer 32 [ i [31:0] $end
$scope module uut $end
$var wire 32 \ Ext_DataAdr [31:0] $end
$var wire 1 T Ext_MemWrite $end
$var wire 32 ] Ext_WriteData [31:0] $end
$var wire 1 V clk $end
$var wire 1 W reset $end
$var wire 32 ^ WriteData_rv32 [31:0] $end
$var wire 32 _ WriteData [31:0] $end
$var wire 32 ` Result [31:0] $end
$var wire 32 a ReadData [31:0] $end
$var wire 32 b PC [31:0] $end
$var wire 1 c MemWrite_rv32 $end
$var wire 1 % MemWrite $end
$var wire 32 d Instr [31:0] $end
$var wire 32 e DataAdr_rv32 [31:0] $end
$var wire 32 f DataAdr [31:0] $end
$scope module datamem $end
$var wire 1 V clk $end
$var wire 3 g funct3 [2:0] $end
$var wire 32 h wr_addr [31:0] $end
$var wire 32 i wr_data [31:0] $end
$var wire 1 % wr_en $end
$var wire 32 j word_addr [31:0] $end
$var parameter 32 k ADDR_WIDTH $end
$var parameter 32 l DATA_WIDTH $end
$var parameter 32 m MEM_SIZE $end
$var reg 32 n rd_data_mem [31:0] $end
$upscope $end
$scope module instrmem $end
$var wire 32 o instr [31:0] $end
$var wire 32 p instr_addr [31:0] $end
$var parameter 32 q ADDR_WIDTH $end
$var parameter 32 r DATA_WIDTH $end
$var parameter 32 s MEM_SIZE $end
$upscope $end
$scope module rvcpu $end
$var wire 32 t Instr [31:0] $end
$var wire 32 u ReadData [31:0] $end
$var wire 1 V clk $end
$var wire 1 W reset $end
$var wire 1 v sltu $end
$var wire 1 w Zero $end
$var wire 2 x ResultSrc [1:0] $end
$var wire 32 y Result [31:0] $end
$var wire 1 z RegWrite $end
$var wire 1 { PCSrc $end
$var wire 32 | PC [31:0] $end
$var wire 32 } Mem_WrData [31:0] $end
$var wire 32 ~ Mem_WrAddr [31:0] $end
$var wire 1 c MemWrite $end
$var wire 1 !" Jump $end
$var wire 1 "" Jalr $end
$var wire 2 #" ImmSrc [1:0] $end
$var wire 1 $" ALUSrc $end
$var wire 1 %" ALUR31 $end
$var wire 4 &" ALUControl [3:0] $end
$scope module c $end
$var wire 1 { PCSrc $end
$var wire 3 '" funct3 [2:0] $end
$var wire 1 (" funct7b5 $end
$var wire 7 )" op [6:0] $end
$var wire 1 v sltu $end
$var wire 1 w Zero $end
$var wire 2 *" ResultSrc [1:0] $end
$var wire 1 z RegWrite $end
$var wire 1 c MemWrite $end
$var wire 1 !" Jump $end
$var wire 1 "" Jalr $end
$var wire 2 +" ImmSrc [1:0] $end
$var wire 1 ," Branch $end
$var wire 1 $" ALUSrc $end
$var wire 1 %" ALUR31 $end
$var wire 2 -" ALUOp [1:0] $end
$var wire 4 ." ALUControl [3:0] $end
$scope module ad $end
$var wire 3 /" funct3 [2:0] $end
$var wire 1 (" funct7b5 $end
$var wire 1 0" opb5 $end
$var wire 2 1" ALUOp [1:0] $end
$var reg 4 2" ALUControl [3:0] $end
$upscope $end
$scope module md $end
$var wire 3 3" funct3 [2:0] $end
$var wire 7 4" op [6:0] $end
$var wire 1 v sltu $end
$var wire 1 w Zero $end
$var wire 2 5" ResultSrc [1:0] $end
$var wire 1 z RegWrite $end
$var wire 1 c MemWrite $end
$var wire 1 !" Jump $end
$var wire 1 "" Jalr $end
$var wire 2 6" ImmSrc [1:0] $end
$var wire 1 ," Branch $end
$var wire 1 $" ALUSrc $end
$var wire 1 %" ALUR31 $end
$var wire 2 7" ALUOp [1:0] $end
$var reg 1 ," TakeBranch $end
$var reg 12 8" controls [11:0] $end
$upscope $end
$upscope $end
$scope module dp $end
$var wire 4 9" ALUControl [3:0] $end
$var wire 1 $" ALUSrc $end
$var wire 2 :" ImmSrc [1:0] $end
$var wire 32 ;" Instr [31:0] $end
$var wire 1 "" Jalr $end
$var wire 32 <" Mem_WrAddr [31:0] $end
$var wire 32 =" Mem_WrData [31:0] $end
$var wire 1 { PCSrc $end
$var wire 32 >" ReadData [31:0] $end
$var wire 1 z RegWrite $end
$var wire 2 ?" ResultSrc [1:0] $end
$var wire 1 V clk $end
$var wire 1 W reset $end
$var wire 1 v sltu $end
$var wire 1 w Zero $end
$var wire 32 @" WriteData [31:0] $end
$var wire 32 A" SrcB [31:0] $end
$var wire 32 B" SrcA [31:0] $end
$var wire 32 C" Result [31:0] $end
$var wire 32 D" PCTarget [31:0] $end
$var wire 32 E" PCPlus4 [31:0] $end
$var wire 32 F" PCNext [31:0] $end
$var wire 32 G" PCJalr [31:0] $end
$var wire 32 H" PC [31:0] $end
$var wire 32 I" LAuipcResult [31:0] $end
$var wire 32 J" ImmExt [31:0] $end
$var wire 32 K" Auipc [31:0] $end
$var wire 32 L" ALUResult [31:0] $end
$var wire 1 %" ALUR31 $end
$scope module AuipcAdder $end
$var wire 32 M" a [31:0] $end
$var wire 32 N" sum [31:0] $end
$var wire 32 O" b [31:0] $end
$var parameter 32 P" WIDTH $end
$upscope $end
$scope module LAuipcMux $end
$var wire 32 Q" d0 [31:0] $end
$var wire 32 R" d1 [31:0] $end
$var wire 1 S" sel $end
$var wire 32 T" y [31:0] $end
$var parameter 32 U" WIDTH $end
$upscope $end
$scope module alu $end
$var wire 4 V" alu_ctrl [3:0] $end
$var wire 1 w zero $end
$var wire 1 v sltu $end
$var wire 32 W" b [31:0] $end
$var wire 32 X" a [31:0] $end
$var parameter 32 Y" WIDTH $end
$var reg 32 Z" alu_out [31:0] $end
$upscope $end
$scope module ext $end
$var wire 2 [" immsrc [1:0] $end
$var wire 25 \" instr [31:7] $end
$var reg 32 ]" immext [31:0] $end
$upscope $end
$scope module jalrmux $end
$var wire 32 ^" d1 [31:0] $end
$var wire 1 "" sel $end
$var wire 32 _" y [31:0] $end
$var wire 32 `" d0 [31:0] $end
$var parameter 32 a" WIDTH $end
$upscope $end
$scope module pcadd4 $end
$var wire 32 b" b [31:0] $end
$var wire 32 c" sum [31:0] $end
$var wire 32 d" a [31:0] $end
$var parameter 32 e" WIDTH $end
$upscope $end
$scope module pcaddbranch $end
$var wire 32 f" b [31:0] $end
$var wire 32 g" sum [31:0] $end
$var wire 32 h" a [31:0] $end
$var parameter 32 i" WIDTH $end
$upscope $end
$scope module pcmux $end
$var wire 32 j" d0 [31:0] $end
$var wire 32 k" d1 [31:0] $end
$var wire 1 { sel $end
$var wire 32 l" y [31:0] $end
$var parameter 32 m" WIDTH $end
$upscope $end
$scope module pcreg $end
$var wire 1 V clk $end
$var wire 32 n" d [31:0] $end
$var wire 1 W rst $end
$var parameter 32 o" WIDTH $end
$var reg 32 p" q [31:0] $end
$upscope $end
$scope module resultmux $end
$var wire 32 q" d0 [31:0] $end
$var wire 32 r" d1 [31:0] $end
$var wire 32 s" d2 [31:0] $end
$var wire 32 t" d3 [31:0] $end
$var wire 2 u" sel [1:0] $end
$var wire 32 v" y [31:0] $end
$var parameter 32 w" WIDTH $end
$upscope $end
$scope module rf $end
$var wire 1 V clk $end
$var wire 5 x" rd_addr1 [4:0] $end
$var wire 5 y" rd_addr2 [4:0] $end
$var wire 5 z" wr_addr [4:0] $end
$var wire 32 {" wr_data [31:0] $end
$var wire 1 z wr_en $end
$var wire 32 |" rd_data2 [31:0] $end
$var wire 32 }" rd_data1 [31:0] $end
$var parameter 32 ~" DATA_WIDTH $end
$var integer 32 !# i [31:0] $end
$upscope $end
$scope module srcbmux $end
$var wire 32 "# d0 [31:0] $end
$var wire 32 ## d1 [31:0] $end
$var wire 1 $" sel $end
$var wire 32 $# y [31:0] $end
$var parameter 32 %# WIDTH $end
$upscope $end
$upscope $end
$upscope $end
$upscope $end
$upscope $end
$enddefinitions $end
$comment Show the parameter values. $end
$dumpall
b100000 %#
b100000 ~"
b100000 w"
b100000 o"
b100000 m"
b100000 i"
b100000 e"
b100000 a"
b100000 Y"
b100000 U"
b100000 P"
b1000000000 s
b100000 r
b100000 q
b1000000 m
b100000 l
b100000 k
b100000 R
b1001000 Q
b1101100 P
b111000 O
b100100 N
b1001100 M
b101000 L
b1010000 K
b1000100 J
b11100 I
b11000 H
b1000000 G
b10100 F
b111100 E
b1101000 D
b1100100 C
b101100 B
b1010100 A
b1111000 @
b1011100 ?
b10000000 >
b1110100 =
b1111100 <
b1110000 ;
b100110100 :
b100111000 9
b100001100 8
b100000000 7
b10011100 6
b10010000 5
b11010100 4
b11001000 3
b10111000 2
b10101100 1
b11110000 0
b11100100 /
b100101000 .
b100011100 -
b1100000 ,
b110000 +
b1011000 *
b1000 )
b10000 (
b110100 '
$end
#0
$dumpvars
b1 $#
b1 ##
b0 "#
b100000 !#
b0 }"
b0 |"
b1 {"
b1 z"
b1 y"
b0 x"
b1 v"
b0 u"
b100000000000000000000 t"
b100 s"
bx r"
b1 q"
b0 p"
b100 n"
b100 l"
b1 k"
b100 j"
b0 h"
b1 g"
b1 f"
b0 d"
b100 c"
b100 b"
b100 `"
b100 _"
b1 ^"
b1 ]"
b10000000000001 \"
b0 ["
b1 Z"
b0 X"
b1 W"
b0 V"
b100000000000000000000 T"
0S"
b100000000000000000000 R"
b100000000000000000000 Q"
b0 O"
b100000000000000000000 N"
b100000000000000000000 M"
b1 L"
b100000000000000000000 K"
b1 J"
b100000000000000000000 I"
b0 H"
b100 G"
b100 F"
b100 E"
b1 D"
b1 C"
b0 B"
b1 A"
b0 @"
b0 ?"
bx >"
b0 ="
b1 <"
b100000000000010010011 ;"
b0 :"
b0 9"
b10010001000 8"
b10 7"
b0 6"
b0 5"
b10011 4"
b0 3"
b0 2"
b10 1"
00"
b0 /"
b0 ."
b10 -"
0,"
b0 +"
b0 *"
b10011 )"
0("
b0 '"
b0 &"
0%"
1$"
b0 #"
0""
0!"
b1 ~
b0 }
b0 |
0{
1z
b1 y
b0 x
0w
1v
bx u
b100000000000010010011 t
b0 p
b100000000000010010011 o
bx n
b0 j
b0 i
b0 h
b0 g
b0 f
b1 e
b100000000000010010011 d
0c
b0 b
bx a
b1 `
b0 _
b0 ^
b0 ]
b0 \
b0 [
b0 Z
b0 Y
b0 X
1W
1V
b0 U
0T
b0 S
b0 &
0%
b0 $
bx #
b1 "
b0 !
$end
#5
0V
#10
b10000 "
b10000 `
b10000 y
b10000 C"
b10000 v"
b10000 {"
b100 j
b10000 e
b10000 ~
b10000 <"
b10000 L"
b10000 Z"
b10000 ^"
b10000 q"
b10000 A"
b10000 W"
b10000 $#
b10000 J"
b10000 ]"
b10000 f"
b10000 ##
b0 !
b0 _
b0 i
b1000 G"
b1000 _"
b1000 n"
b10000 y"
b10 z"
b100000000000000010 \"
b1000000000000000000000000 M"
b1000000000000000000000000 R"
b0 ^
b0 }
b0 ="
b0 @"
b0 |"
b0 "#
b1000 F"
b1000 `"
b1000 l"
b1000000000000000000000100 I"
b1000000000000000000000100 T"
b1000000000000000000000100 t"
b1000000000000000100010011 d
b1000000000000000100010011 o
b1000000000000000100010011 t
b1000000000000000100010011 ;"
b10100 D"
b10100 g"
b10100 k"
b1000 E"
b1000 c"
b1000 j"
b1000 s"
b1000000000000000000000100 K"
b1000000000000000000000100 N"
b1000000000000000000000100 Q"
b100 $
b100 b
b100 p
b100 |
b100 H"
b100 O"
b100 d"
b100 h"
b100 p"
1V
b10000 &
b10000 f
b10000 h
0W
#15
0V
#20
b11111111111111111111111111111101 "
b11111111111111111111111111111101 `
b11111111111111111111111111111101 y
b11111111111111111111111111111101 C"
b11111111111111111111111111111101 v"
b11111111111111111111111111111101 {"
b111111 j
1%"
b11111111111111111111111111111101 &
b11111111111111111111111111111101 f
b11111111111111111111111111111101 h
b11111111111111111111111111111101 e
b11111111111111111111111111111101 ~
b11111111111111111111111111111101 <"
b11111111111111111111111111111101 L"
b11111111111111111111111111111101 Z"
b11111111111111111111111111111101 ^"
b11111111111111111111111111111101 q"
b11111111111111111111111111111101 A"
b11111111111111111111111111111101 W"
b11111111111111111111111111111101 $#
b11111111111111111111111111111101 J"
b11111111111111111111111111111101 ]"
b11111111111111111111111111111101 f"
b11111111111111111111111111111101 ##
b1100 G"
b1100 _"
b1100 n"
1("
b11101 y"
b11 z"
b1111111111010000000000011 \"
b11111111110100000000000000000000 M"
b11111111110100000000000000000000 R"
b1100 F"
b1100 `"
b1100 l"
b11111111110100000000000000001000 I"
b11111111110100000000000000001000 T"
b11111111110100000000000000001000 t"
b11111111110100000000000110010011 d
b11111111110100000000000110010011 o
b11111111110100000000000110010011 t
b11111111110100000000000110010011 ;"
b101 D"
b101 g"
b101 k"
b1100 E"
b1100 c"
b1100 j"
b1100 s"
b11111111110100000000000000001000 K"
b11111111110100000000000000001000 N"
b11111111110100000000000000001000 Q"
b1000 $
b1000 b
b1000 p
b1000 |
b1000 H"
b1000 O"
b1000 d"
b1000 h"
b1000 p"
1V
#25
b1 [
0V
#30
b0 "
b0 `
b0 y
b0 C"
b0 v"
b0 {"
b0 j
1w
0%"
b0 &
b0 f
b0 h
b0 e
b0 ~
b0 <"
b0 L"
b0 Z"
b0 ^"
b0 q"
0v
b0 A"
b0 W"
b0 $#
b0 J"
b0 ]"
b0 f"
b0 ##
b10000 G"
b10000 _"
b10000 n"
0("
b0 y"
b100 z"
b100 \"
b0 M"
b0 R"
b10000 F"
b10000 `"
b10000 l"
b1100 I"
b1100 T"
b1100 t"
b1000010011 d
b1000010011 o
b1000010011 t
b1000010011 ;"
b1100 D"
b1100 g"
b1100 k"
b10000 E"
b10000 c"
b10000 j"
b10000 s"
b1100 K"
b1100 N"
b1100 Q"
b1100 $
b1100 b
b1100 p
b1100 |
b1100 H"
b1100 O"
b1100 d"
b1100 h"
b1100 p"
1V
#35
0V
#40
b1001 "
b1001 `
b1001 y
b1001 C"
b1001 v"
b1001 {"
b10 j
0w
b1001 &
b1001 f
b1001 h
b1001 e
b1001 ~
b1001 <"
b1001 L"
b1001 Z"
b1001 ^"
b1001 q"
b1100 A"
b1100 W"
b1100 $#
b11111111111111111111111111111101 B"
b11111111111111111111111111111101 X"
b11111111111111111111111111111101 }"
b1100 J"
b1100 ]"
b1100 f"
b1100 ##
b10100 G"
b10100 _"
b10100 n"
b11 x"
b1100 y"
b101 z"
b11000001100000101 \"
b110000011000000000000000 M"
b110000011000000000000000 R"
b10100 F"
b10100 `"
b10100 l"
b110000011000000000010000 I"
b110000011000000000010000 T"
b110000011000000000010000 t"
b110000011000001010010011 d
b110000011000001010010011 o
b110000011000001010010011 t
b110000011000001010010011 ;"
b11100 D"
b11100 g"
b11100 k"
b10100 E"
b10100 c"
b10100 j"
b10100 s"
b110000011000000000010000 K"
b110000011000000000010000 N"
b110000011000000000010000 Q"
b10000 $
b10000 b
b10000 p
b10000 |
b10000 H"
b10000 O"
b10000 d"
b10000 h"
b10000 p"
1V
#45
b10 [
0V
#50
b1000000 "
b1000000 `
b1000000 y
b1000000 C"
b1000000 v"
b1000000 {"
b10000 j
b1000000 &
b1000000 f
b1000000 h
b1000000 e
b1000000 ~
b1000000 <"
b1000000 L"
b1000000 Z"
b1000000 ^"
b1000000 q"
b10000 !
b10000 _
b10000 i
b10 A"
b10 W"
b10 $#
b110 &"
b110 ."
b110 2"
b110 9"
b110 V"
b10000 B"
b10000 X"
b10000 }"
b10000 ^
b10000 }
b10000 ="
b10000 @"
b10000 |"
b10000 "#
b10 J"
b10 ]"
b10 f"
b10 ##
b11000 G"
b11000 _"
b11000 n"
b1 '"
b1 /"
b1 3"
b10 x"
b10 y"
b110 z"
b100001000100110 \"
b1000010001000000000000 M"
b1000010001000000000000 R"
b1 g
b11000 F"
b11000 `"
b11000 l"
b1000010001000000010100 I"
b1000010001000000010100 T"
b1000010001000000010100 t"
b1000010001001100010011 d
b1000010001001100010011 o
b1000010001001100010011 t
b1000010001001100010011 ;"
b10110 D"
b10110 g"
b10110 k"
b11000 E"
b11000 c"
b11000 j"
b11000 s"
b1000010001000000010100 K"
b1000010001000000010100 N"
b1000010001000000010100 Q"
b10100 $
b10100 b
b10100 p
b10100 |
b10100 H"
b10100 O"
b10100 d"
b10100 h"
b10100 p"
1V
#55
b11 [
0V
#60
b0 "
b0 `
b0 y
b0 C"
b0 v"
b0 {"
b0 j
1w
b0 &
b0 f
b0 h
b0 e
b0 ~
b0 <"
b0 L"
b0 Z"
b0 ^"
b0 q"
1v
b0 !
b0 _
b0 i
b11111111111111111111111111110000 A"
b11111111111111111111111111110000 W"
b11111111111111111111111111110000 $#
b101 &"
b101 ."
b101 2"
b101 9"
b101 V"
b0 ^
b0 }
b0 ="
b0 @"
b0 |"
b0 "#
b11111111111111111111111111110000 J"
b11111111111111111111111111110000 ]"
b11111111111111111111111111110000 f"
b11111111111111111111111111110000 ##
b11100 G"
b11100 _"
b11100 n"
b10 '"
b10 /"
b10 3"
1("
b10000 y"
b111 z"
b1111111100000001001000111 \"
b11111111000000010010000000000000 M"
b11111111000000010010000000000000 R"
b10 g
b11100 F"
b11100 `"
b11100 l"
b11111111000000010010000000011000 I"
b11111111000000010010000000011000 T"
b11111111000000010010000000011000 t"
b11111111000000010010001110010011 d
b11111111000000010010001110010011 o
b11111111000000010010001110010011 t
b11111111000000010010001110010011 ;"
b1000 D"
b1000 g"
b1000 k"
b11100 E"
b11100 c"
b11100 j"
b11100 s"
b11111111000000010010000000011000 K"
b11111111000000010010000000011000 N"
b11111111000000010010000000011000 Q"
b11000 $
b11000 b
b11000 p
b11000 |
b11000 H"
b11000 O"
b11000 d"
b11000 h"
b11000 p"
1V
#65
b100 [
0V
#70
b1 "
b1 `
b1 y
b1 C"
b1 v"
b1 {"
0w
b1 &
b1 f
b1 h
b1 e
b1 ~
b1 <"
b1 L"
b1 Z"
b1 ^"
b1 q"
b100 &"
b100 ."
b100 2"
b100 9"
b100 V"
b100000 G"
b100000 _"
b100000 n"
b11 '"
b11 /"
b11 3"
b1000 z"
b1111111100000001001101000 \"
b11111111000000010011000000000000 M"
b11111111000000010011000000000000 R"
b11 g
b100000 F"
b100000 `"
b100000 l"
b11111111000000010011000000011100 I"
b11111111000000010011000000011100 T"
b11111111000000010011000000011100 t"
b11111111000000010011010000010011 d
b11111111000000010011010000010011 o
b11111111000000010011010000010011 t
b11111111000000010011010000010011 ;"
b1100 D"
b1100 g"
b1100 k"
b100000 E"
b100000 c"
b100000 j"
b100000 s"
b11111111000000010011000000011100 K"
b11111111000000010011000000011100 N"
b11111111000000010011000000011100 Q"
b11100 $
b11100 b
b11100 p
b11100 |
b11100 H"
b11100 O"
b11100 d"
b11100 h"
b11100 p"
1V
#75
b101 [
0V
#80
b10 "
b10 `
b10 y
b10 C"
b10 v"
b10 {"
b10 &
b10 f
b10 h
b10 e
b10 ~
b10 <"
b10 L"
b10 Z"
b10 ^"
b10 q"
b10010 A"
b10010 W"
b10010 $#
b111 &"
b111 ."
b111 2"
b111 9"
b111 V"
b10010 J"
b10010 ]"
b10010 f"
b10010 ##
b0xxxxxxxx #
b0xxxxxxxx a
b0xxxxxxxx n
b0xxxxxxxx u
b0xxxxxxxx >"
b0xxxxxxxx r"
b100100 G"
b100100 _"
b100100 n"
b100 '"
b100 /"
b100 3"
0("
b10010 y"
b1001 z"
b100100001010001001 \"
b1001000010100000000000000 M"
b1001000010100000000000000 R"
b100 g
b100100 F"
b100100 `"
b100100 l"
b1001000010100000000100000 I"
b1001000010100000000100000 T"
b1001000010100000000100000 t"
b1001000010100010010010011 d
b1001000010100010010010011 o
b1001000010100010010010011 t
b1001000010100010010010011 ;"
b110010 D"
b110010 g"
b110010 k"
b100100 E"
b100100 c"
b100100 j"
b100100 s"
b1001000010100000000100000 K"
b1001000010100000000100000 N"
b1001000010100000000100000 Q"
b100000 $
b100000 b
b100000 p
b100000 |
b100000 H"
b100000 O"
b100000 d"
b100000 h"
b100000 p"
1V
#85
b110 [
0V
#90
b11111111111111111111111111111 "
b11111111111111111111111111111 `
b11111111111111111111111111111 y
b11111111111111111111111111111 C"
b11111111111111111111111111111 v"
b11111111111111111111111111111 {"
b111111 j
b11111111111111111111111111111 &
b11111111111111111111111111111 f
b11111111111111111111111111111 h
b11111111111111111111111111111 e
b11111111111111111111111111111 ~
b11111111111111111111111111111 <"
b11111111111111111111111111111 L"
b11111111111111111111111111111 Z"
b11111111111111111111111111111 ^"
b11111111111111111111111111111 q"
0v
b11111111111111111111111111111101 !
b11111111111111111111111111111101 _
b11111111111111111111111111111101 i
b11 A"
b11 W"
b11 $#
b1001 &"
b1001 ."
b1001 2"
b1001 9"
b1001 V"
b11111111111111111111111111111101 B"
b11111111111111111111111111111101 X"
b11111111111111111111111111111101 }"
b11111111111111111111111111111101 ^
b11111111111111111111111111111101 }
b11111111111111111111111111111101 ="
b11111111111111111111111111111101 @"
b11111111111111111111111111111101 |"
b11111111111111111111111111111101 "#
b11 J"
b11 ]"
b11 f"
b11 ##
b0xxxxxxxxxxxxxxxx #
b0xxxxxxxxxxxxxxxx a
b0xxxxxxxxxxxxxxxx n
b0xxxxxxxxxxxxxxxx u
b0xxxxxxxxxxxxxxxx >"
b0xxxxxxxxxxxxxxxx r"
b101000 G"
b101000 _"
b101000 n"
b101 '"
b101 /"
b101 3"
b11 x"
b11 y"
b1010 z"
b110001110101010 \"
b1100011101000000000000 M"
b1100011101000000000000 R"
b101 g
b101000 F"
b101000 `"
b101000 l"
b1100011101000000100100 I"
b1100011101000000100100 T"
b1100011101000000100100 t"
b1100011101010100010011 d
b1100011101010100010011 o
b1100011101010100010011 t
b1100011101010100010011 ;"
b100111 D"
b100111 g"
b100111 k"
b101000 E"
b101000 c"
b101000 j"
b101000 s"
b1100011101000000100100 K"
b1100011101000000100100 N"
b1100011101000000100100 Q"
b100100 $
b100100 b
b100100 p
b100100 |
b100100 H"
b100100 O"
b100100 d"
b100100 h"
b100100 p"
1V
#95
b111 [
0V
#100
b11111111111111111111111111111111 "
b11111111111111111111111111111111 `
b11111111111111111111111111111111 y
b11111111111111111111111111111111 C"
b11111111111111111111111111111111 v"
b11111111111111111111111111111111 {"
1%"
b11111111111111111111111111111111 &
b11111111111111111111111111111111 f
b11111111111111111111111111111111 h
b11111111111111111111111111111111 e
b11111111111111111111111111111111 ~
b11111111111111111111111111111111 <"
b11111111111111111111111111111111 L"
b11111111111111111111111111111111 Z"
b11111111111111111111111111111111 ^"
b11111111111111111111111111111111 q"
b10000000011 A"
b10000000011 W"
b10000000011 $#
b1000 &"
b1000 ."
b1000 2"
b1000 9"
b1000 V"
b10000000011 J"
b10000000011 ]"
b10000000011 f"
b10000000011 ##
b101100 G"
b101100 _"
b101100 n"
1("
b1011 z"
b100000000110001110101011 \"
b1000000001100011101000000000000 M"
b1000000001100011101000000000000 R"
b101100 F"
b101100 `"
b101100 l"
b1000000001100011101000000101000 I"
b1000000001100011101000000101000 T"
b1000000001100011101000000101000 t"
b1000000001100011101010110010011 d
b1000000001100011101010110010011 o
b1000000001100011101010110010011 t
b1000000001100011101010110010011 ;"
b10000101011 D"
b10000101011 g"
b10000101011 k"
b101100 E"
b101100 c"
b101100 j"
b101100 s"
b1000000001100011101000000101000 K"
b1000000001100011101000000101000 N"
b1000000001100011101000000101000 Q"
b101000 $
b101000 b
b101000 p
b101000 |
b101000 H"
b101000 O"
b101000 d"
b101000 h"
b101000 p"
1V
#105
b1000 [
0V
#110
b11 A"
b11 W"
b11 $#
b11 &"
b11 ."
b11 2"
b11 9"
b11 V"
b11 J"
b11 ]"
b11 f"
b11 ##
b110000 G"
b110000 _"
b110000 n"
b110 '"
b110 /"
b110 3"
0("
b1100 z"
b110001111001100 \"
b1100011110000000000000 M"
b1100011110000000000000 R"
b110 g
b110000 F"
b110000 `"
b110000 l"
b1100011110000000101100 I"
b1100011110000000101100 T"
b1100011110000000101100 t"
b1100011110011000010011 d
b1100011110011000010011 o
b1100011110011000010011 t
b1100011110011000010011 ;"
b101111 D"
b101111 g"
b101111 k"
b110000 E"
b110000 c"
b110000 j"
b110000 s"
b1100011110000000101100 K"
b1100011110000000101100 N"
b1100011110000000101100 Q"
b101100 $
b101100 b
b101100 p
b101100 |
b101100 H"
b101100 O"
b101100 d"
b101100 h"
b101100 p"
1V
#115
b1001 [
0V
#120
b1 "
b1 `
b1 y
b1 C"
b1 v"
b1 {"
b0 j
0%"
b1 &
b1 f
b1 h
b1 e
b1 ~
b1 <"
b1 L"
b1 Z"
b1 ^"
b1 q"
b10 &"
b10 ."
b10 2"
b10 9"
b10 V"
b110100 G"
b110100 _"
b110100 n"
b111 '"
b111 /"
b111 3"
b1101 z"
b110001111101101 \"
b1100011111000000000000 M"
b1100011111000000000000 R"
b111 g
b110100 F"
b110100 `"
b110100 l"
b1100011111000000110000 I"
b1100011111000000110000 T"
b1100011111000000110000 t"
b1100011111011010010011 d
b1100011111011010010011 o
b1100011111011010010011 t
b1100011111011010010011 ;"
b110011 D"
b110011 g"
b110011 k"
b110100 E"
b110100 c"
b110100 j"
b110100 s"
b1100011111000000110000 K"
b1100011111000000110000 N"
b1100011111000000110000 Q"
b110000 $
b110000 b
b110000 p
b110000 |
b110000 H"
b110000 O"
b110000 d"
b110000 h"
b110000 p"
1V
#125
b1010 [
0V
#130
b10001 "
b10001 `
b10001 y
b10001 C"
b10001 v"
b10001 {"
b100 j
b10001 &
b10001 f
b10001 h
b10001 e
b10001 ~
b10001 <"
b10001 L"
b10001 Z"
b10001 ^"
b10001 q"
0$"
bx #"
bx +"
bx 6"
bx :"
bx ["
b1 !
b1 _
b1 i
b1 A"
b1 W"
b1 $#
10"
b0 &"
b0 ."
b0 2"
b0 9"
b0 V"
b1xx00001000 8"
b10000 B"
b10000 X"
b10000 }"
b1 ^
b1 }
b1 ="
b1 @"
b1 |"
b1 "#
bx J"
bx ]"
bx f"
bx ##
bx #
bx a
bx n
bx u
bx >"
bx r"
b111000 G"
b111000 _"
b111000 n"
b110011 )"
b110011 4"
b0 '"
b0 /"
b0 3"
b10 x"
b1 y"
b1110 z"
b10001000001110 \"
b100010000000000000000 M"
b100010000000000000000 R"
1S"
b0 g
b111000 F"
b111000 `"
b111000 l"
b100010000000000000000 I"
b100010000000000000000 T"
b100010000000000000000 t"
b100010000011100110011 d
b100010000011100110011 o
b100010000011100110011 t
b100010000011100110011 ;"
bx D"
bx g"
bx k"
b111000 E"
b111000 c"
b111000 j"
b111000 s"
b100010000000000110100 K"
b100010000000000110100 N"
b100010000000000110100 Q"
b110100 $
b110100 b
b110100 p
b110100 |
b110100 H"
b110100 O"
b110100 d"
b110100 h"
b110100 p"
1V
#135
b1011 [
0V
#140
b1111 "
b1111 `
b1111 y
b1111 C"
b1111 v"
b1111 {"
b11 j
b1111 &
b1111 f
b1111 h
b1111 e
b1111 ~
b1111 <"
b1111 L"
b1111 Z"
b1111 ^"
b1111 q"
b1 &"
b1 ."
b1 2"
b1 9"
b1 V"
b1000000000100010000000000000000 I"
b1000000000100010000000000000000 T"
b1000000000100010000000000000000 t"
b111100 G"
b111100 _"
b111100 n"
1("
b1111 z"
b100000000010001000001111 \"
b1000000000100010000000000000000 M"
b1000000000100010000000000000000 R"
b111100 F"
b111100 `"
b111100 l"
b1000000000100010000011110110011 d
b1000000000100010000011110110011 o
b1000000000100010000011110110011 t
b1000000000100010000011110110011 ;"
b111100 E"
b111100 c"
b111100 j"
b111100 s"
b1000000000100010000000000111000 K"
b1000000000100010000000000111000 N"
b1000000000100010000000000111000 Q"
b111000 $
b111000 b
b111000 p
b111000 |
b111000 H"
b111000 O"
b111000 d"
b111000 h"
b111000 p"
1V
#145
b1100 [
0V
